…
``` r
# install.packages("devtools")
devtools::install_github("rmhirota/eleicoesmun2020")
```

## Exemplo

Baixando dados de eleições à prefeitura em Roraima:

``` r
library(eleicoesmun2020)

download_uf(estado = "RR", cargo = "prefeito", path = "csv")
#> # A tibble: 65 x 74
#>    raiz_ele raiz_tpabr raiz_cdabr raiz_carper raiz_t raiz_f raiz_dt raiz_ht
#>    <chr>    <chr>      <chr>      <chr>       <chr>  <chr>  <chr>   <chr>  
#>  1 426      mu         03042      11          1      o      15/11/… 21:37:…
#>  2 426      mu         03042      11          1      o      15/11/… 21:37:…
#>  3 426      mu         03042      11          1      o      15/11/… 21:37:…
#>  4 426      mu         03042      11          1      o      15/11/… 21:37:…
#>  5 426      mu         03042      11          1      o      15/11/… 21:37:…
#>  6 426      mu         03050      11          1      o      15/11/… 21:10:…
#>  7 426      mu         03050      11          1      o      15/11/… 21:10:…
#>  8 426      mu         03050      11          1      o      15/11/… 21:10:…
#>  9 426      mu         03018      11          1      o      15/11/… 22:00:…
#> 10 426      mu         03018      11          1      o      15/11/… 22:00:…
#> # … with 55 more rows, and 66 more variables: raiz_dv <chr>, raiz_tf <chr>,
#> #   raiz_v <chr>, raiz_esae <chr>, raiz_mnae <chr>, raiz_s <chr>,
#> #   raiz_st <chr>, raiz_pst <chr>, raiz_snt <chr>, raiz_psnt <chr>,
#> #   raiz_si <chr>, raiz_psi <chr>, raiz_sni <chr>, raiz_psni <chr>,
#> #   raiz_sa <chr>, raiz_psa <chr>, raiz_sna <chr>, raiz_psna <chr>,
#> #   raiz_e <chr>, raiz_ea <chr>, raiz_pea <chr>, raiz_ena <chr>,
#> #   raiz_pena <chr>, raiz_esi <chr>, raiz_pesi <chr>, raiz_esni <chr>,
#> #   raiz_pesni <chr>, raiz_c <chr>, raiz_pc <chr>, raiz_a <chr>, raiz_pa <chr>,
#> #   raiz_vscv <chr>, raiz_vnom <chr>, raiz_pvnom <chr>, raiz_vvc <chr>,
…
A função retornará uma tabela com os dados, além de salvar um arquivo
.csv na pasta indicada em `path`. Caso não queira salvar o arquivo,
basta ignorar o parâmetro, como no exemplo a seguir:

``` r
library(eleicoesmun2020)

download_uf(estado = "RR", cargo = "prefeito")
#> # A tibble: 65 x 74
#>    raiz_ele raiz_tpabr raiz_cdabr raiz_carper raiz_t raiz_f raiz_dt raiz_ht
#>    <chr>    <chr>      <chr>      <chr>       <chr>  <chr>  <chr>   <chr>  
#>  1 426      mu         03042      11          1      o      15/11/… 21:37:…
#>  2 426      mu         03042      11          1      o      15/11/… 21:37:…
#>  3 426      mu         03042      11          1      o      15/11/… 21:37:…
#>  4 426      mu         03042      11          1      o      15/11/… 21:37:…
#>  5 426      mu         03042      11          1      o      15/11/… 21:37:…
#>  6 426      mu         03050      11          1      o      15/11/… 21:10:…
#>  7 426      mu         03050      11          1      o      15/11/… 21:10:…
#>  8 426      mu         03050      11          1      o      15/11/… 21:10:…
#>  9 426      mu         03018      11          1      o      15/11/… 22:00:…
#> 10 426      mu         03018      11          1      o      15/11/… 22:00:…
#> # … with 55 more rows, and 66 more variables: raiz_dv <chr>, raiz_tf <chr>,
#> #   raiz_v <chr>, raiz_esae <chr>, raiz_mnae <chr>, raiz_s <chr>,
#> #   raiz_st <chr>, raiz_pst <chr>, raiz_snt <chr>, raiz_psnt <chr>,
#> #   raiz_si <chr>, raiz_psi <chr>, raiz_sni <chr>, raiz_psni <chr>,
#> #   raiz_sa <chr>, raiz_psa <chr>, raiz_sna <chr>, raiz_psna <chr>,
#> #   raiz_e <chr>, raiz_ea <chr>, raiz_pea <chr>, raiz_ena <chr>,
#> #   raiz_pena <chr>, raiz_esi <chr>, raiz_pesi <chr>, raiz_esni <chr>,
#> #   raiz_pesni <chr>, raiz_c <chr>, raiz_pc <chr>, raiz_a <chr>, raiz_pa <chr>,
#> #   raiz_vscv <chr>, raiz_vnom <chr>, raiz_pvnom <chr>, raiz_vvc <chr>,
…
